MIDCAB_DM1
…
describe(df1$cpb_time)

## df1$cpb_time 
##        n  missing distinct     Info     Mean      Gmd      .05      .10 
##     1456        0       30    0.072    1.376    2.702        0        0 
##      .25      .50      .75      .90      .95 
##        0        0        0        0        0 
## 
## lowest :   0  15  25  26  29, highest:  86  96 102 109 144

df1 %>% count(cpb_time)

## # A tibble: 30 x 2
##    cpb_time     n
##       <dbl> <int>
##  1        0  1420
##  2       15     1
##  3       25     1
##  4       26     1
##  5       29     1
##  6       31     2
##  7       37     1
##  8       38     3
##  9       39     1
## 10       40     1
## # ... with 20 more rows
…
